<?xml version="1.0" encoding="utf-8"?>
<!-- Generator: Adobe Illustrator 22.1.0, SVG Export Plug-In . SVG Version: 6.00 Build 0)  -->
<svg version="1.1" id="Layer_1" xmlns="http://www.w3.org/2000/svg" xmlns:xlink="http://www.w3.org/1999/xlink" x="0px" y="0px"
	 viewBox="0 0 24 24" style="enable-background:new 0 0 24 24;" xml:space="preserve">
<title>sticker</title>
<path d="M12,2C6.5,2,2,6.5,2,12c0,5.2,4,9.5,9,10c0.1,0,0.1,0,0.2,0c0.5,0,1-0.2,1.4-0.6l8.8-8.8c0.4-0.4,0.6-1,0.6-1.6
	C21.5,6,17.2,2,12,2z M12,19.2V18c0-3.3,2.7-6,6-6h1.3L12,19.2z"/>
</svg>
