<?xml version="1.0" encoding="utf-8"?>
<!-- Generator: Adobe Illustrator 22.1.0, SVG Export Plug-In . SVG Version: 6.00 Build 0)  -->
<svg version="1.1" id="Layer_1" xmlns="http://www.w3.org/2000/svg" xmlns:xlink="http://www.w3.org/1999/xlink" x="0px" y="0px"
	 viewBox="0 0 24 24" style="enable-background:new 0 0 24 24;" xml:space="preserve">
<title>archive</title>
<path d="M19,3H5C3.9,3,3,3.9,3,5v14c0,1.1,0.9,2,2,2h14c1.1,0,2-0.9,2-2V5C21,3.9,20.1,3,19,3z M15.9,14.3l-3.5,3.5
	c-0.2,0.2-0.5,0.2-0.7,0c0,0,0,0,0,0l-3.5-3.5c-0.2-0.2-0.2-0.5,0-0.7l0.2-0.2c0.1-0.1,0.2-0.1,0.4-0.1H10V9.5C10,9.2,10.2,9,10.5,9
	h3C13.8,9,14,9.2,14,9.5v3.8h1.3c0.1,0,0.3,0,0.4,0.1l0.2,0.2C16.1,13.8,16.1,14.1,15.9,14.3z M19,7H5V5h14V7z"/>
</svg>
