<?xml version="1.0" encoding="utf-8"?>
<!-- Generator: Adobe Illustrator 22.1.0, SVG Export Plug-In . SVG Version: 6.00 Build 0)  -->
<svg version="1.1" id="Layer_1" xmlns="http://www.w3.org/2000/svg" xmlns:xlink="http://www.w3.org/1999/xlink" x="0px" y="0px"
	 viewBox="0 0 24 24" style="enable-background:new 0 0 24 24;" xml:space="preserve">
<title>cloud</title>
<path d="M6,10c0-3.3,2.7-6,6-6c3,0,5.4,2.2,5.9,5c2.8,0.2,5.1,2.6,5.1,5.5c0,3-2.5,5.5-5.5,5.5H6c-2.8,0-5-2.2-5-5S3.2,10,6,10z"/>
</svg>
