<?xml version="1.0" encoding="UTF-8"?>
<svg id="Layer_1" xmlns="http://www.w3.org/2000/svg" viewBox="0 0 24 24">
  <path 
    id="text-box-search"
    d="M14.81,10.81c2.5,0,4.5,2,4.5,4.5,0,.88-.25,1.71-.69,2.4l3.08,3.1-1.39,1.39-3.12-3.07c-.69,.43-1.51,.68-2.38,.68-2.5,0-4.5-2-4.5-4.5s2-4.5,4.5-4.5Zm0,2c-.66,0-1.3,.26-1.77,.73-.47,.47-.73,1.1-.73,1.77s.26,1.3,.73,1.77c.47,.47,1.1,.73,1.77,.73s1.3-.26,1.77-.73c.47-.47,.73-1.1,.73-1.77s-.26-1.3-.73-1.77c-.47-.47-1.1-.73-1.77-.73Zm-8.5,1v2h2c.14,1.55,.8,2.94,1.81,4H4.31c-1.11,0-2-.9-2-2V3.81c0-1.11,.89-2,2-2h14c.53,0,1.04,.21,1.41,.59,.38,.38,.59,.88,.59,1.41V11.84c-1.15-1.82-3.18-3.03-5.5-3.03-1.27,0-2.46,.37-3.46,1H6.31v2h3c-.36,.6-.66,1.28-.83,2h-2.17Zm10-6v-2H6.31v2h10Z"
  />
</svg>